Differences in Proportions
…
Bonus! What names had the highest and lowest chances of receiving call backs?

REPLACE THIS LINE WITH YOUR CODE CHUNK

resume |> 
  group_by(firstname) |> 
  summarise(prop_callback = mean(call)) |> 
  arrange(-prop_callback)

# A tibble: 36 × 2
   firstname prop_callback
   <chr>             <dbl>
 1 Brad             0.159 
 2 Jay              0.134 
 3 Kristen          0.131 
 4 Carrie           0.131 
 5 Meredith         0.102 
 6 Sarah            0.0984
 7 Laurie           0.0974
 8 Ebony            0.0962
 9 Jermaine         0.0962
10 Allison          0.0948
# ℹ 26 more rows
…
